src/wave.vcd
$date
	Fri Dec 29 23:22:19 2023
$end
$version
	Icarus Verilog
$end
$timescale
	1s
$end
$scope module top_tb $end
$var reg 1 ! clk1 $end
$var reg 1 " clk2 $end
$var reg 1 # clk3 $end
$var reg 1 $ rst $end
$scope module TEST $end
$var wire 1 # clk1 $end
$var wire 1 # clk2 $end
$var wire 1 $ rst $end
$var wire 32 % WriteDataM [31:0] $end
$var wire 1 & StallF $end
$var wire 1 ' StallD $end
$var wire 5 ( Rs2D [4:0] $end
$var wire 5 ) Rs1D [4:0] $end
$var wire 32 * ResultW [31:0] $end
$var wire 2 + ResultSrcW [1:0] $end
$var wire 2 , ResultSrcM [1:0] $end
$var wire 2 - ResultSrcE [1:0] $end
$var wire 1 . RegWriteW $end
$var wire 1 / RegWriteM $end
$var wire 1 0 RegWriteE $end
$var wire 32 1 ReadDataW [31:0] $end
$var wire 5 2 RS2_E [4:0] $end
$var wire 5 3 RS1_E [4:0] $end
$var wire 5 4 RDW [4:0] $end
$var wire 5 5 RDM [4:0] $end
$var wire 5 6 RDE [4:0] $end
$var wire 32 7 RD2E [31:0] $end
$var wire 32 8 RD1E [31:0] $end
$var wire 32 9 PCTargetE [31:0] $end
$var wire 1 : PCSrcE $end
$var wire 32 ; PCPlus4W [31:0] $end
$var wire 32 < PCPlus4M [31:0] $end
$var wire 32 = PCPlus4F_Fed [31:0] $end
$var wire 32 > PCPlus4E [31:0] $end
$var wire 32 ? PCPlus4D [31:0] $end
$var wire 32 @ PCE [31:0] $end
$var wire 32 A PCD [31:0] $end
$var wire 32 B PC [31:0] $end
$var wire 1 C MemWriteM $end
$var wire 1 D MemWriteE $end
$var wire 1 E JumpE $end
$var wire 32 F InstrD [31:0] $end
$var wire 32 G ImmExtE [31:0] $end
$var wire 2 H ForwardBE [1:0] $end
$var wire 2 I ForwardAE [1:0] $end
$var wire 1 J FlushE $end
$var wire 1 K FlushD $end
$var wire 1 L BranchE $end
$var wire 2 M ALUSrcBE [1:0] $end
$var wire 1 N ALUSrcAE $end
$var wire 32 O ALUResultW [31:0] $end
$var wire 32 P ALUResultM [31:0] $end
$var wire 4 Q ALUControlE [3:0] $end
$scope module Decode $end
$var wire 4 R ALUControlE [3:0] $end
$var wire 1 N ALUSrcAE $end
$var wire 2 S ALUSrcBE [1:0] $end
$var wire 1 L BranchE $end
$var wire 32 T ImmExtE [31:0] $end
$var wire 1 E JumpE $end
$var wire 1 D MemWriteE $end
$var wire 32 U PCE [31:0] $end
$var wire 32 V PCPlus4E [31:0] $end
$var wire 32 W RD1E [31:0] $end
$var wire 32 X RD2E [31:0] $end
$var wire 5 Y RDE [4:0] $end
$var wire 5 Z RS1E [4:0] $end
$var wire 5 [ RS2E [4:0] $end
$var wire 1 0 RegWriteE $end
$var wire 2 \ ResultSrcE [1:0] $end
$var wire 5 ] Rs1D [4:0] $end
$var wire 5 ^ Rs2D [4:0] $end
$var wire 1 # clk $end
$var wire 1 $ rst $end
$var wire 1 J clr $end
$var wire 32 _ ResultW [31:0] $end
$var wire 2 ` ResultSrcD [1:0] $end
$var wire 1 . RegWriteW $end
$var wire 1 a RegWriteD $end
$var wire 5 b RdD [4:0] $end
$var wire 5 c RS2D [4:0] $end
$var wire 5 d RS1D [4:0] $end
$var wire 5 e RDW [4:0] $end
$var wire 32 f RD2D [31:0] $end
$var wire 32 g RD1D [31:0] $end
$var wire 32 h PCPlus4D [31:0] $end
$var wire 32 i PCD [31:0] $end
$var wire 1 j MemWriteD $end
$var wire 1 k JumpD $end
$var wire 32 l InstrD [31:0] $end
$var wire 3 m ImmSrcD [2:0] $end
$var wire 32 n ImmExtD [31:0] $end
$var wire 1 o BranchD $end
$var wire 2 p ALUSrcBD [1:0] $end
$var wire 1 q ALUSrcAD $end
$var wire 4 r ALUControlD [3:0] $end
$var reg 4 s ALUControlD_reg [3:0] $end
$var reg 1 N ALUSrcAD_reg $end
$var reg 2 t ALUSrcBD_reg [1:0] $end
$var reg 1 L BranchD_reg $end
$var reg 32 u ImmExtD_reg [31:0] $end
$var reg 1 E JumpD_reg $end
$var reg 1 v MemWriteD_reg $end
$var reg 32 w PCD_reg [31:0] $end
$var reg 32 x PCPlus4D_reg [31:0] $end
$var reg 32 y RD1D_reg [31:0] $end
$var reg 32 z RD2D_reg [31:0] $end
$var reg 5 { RDD_reg [4:0] $end
$var reg 5 | RS1D_reg [4:0] $end
$var reg 5 } RS2D_reg [4:0] $end
$var reg 1 ~ RegWriteD_reg $end
$var reg 2 !" ResultSrcD_reg [1:0] $end
$scope module RegFile $end
$var wire 5 "" A1 [4:0] $end
$var wire 5 #" A2 [4:0] $end
$var wire 1 # clk $end
$var wire 1 $ rst $end
$var wire 1 . WE3 $end
$var wire 32 $" WD3 [31:0] $end
$var wire 32 %" RD2 [31:0] $end
$var wire 32 &" RD1 [31:0] $end
$var wire 5 '" A3 [4:0] $end
$upscope $end
$scope module SignExtend $end
$var wire 25 (" In [31:7] $end
$var wire 3 )" ImmSrc [2:0] $end
$var reg 32 *" Imm_Ext [31:0] $end
$upscope $end
$scope module ctrl_unit $end
$var wire 7 +" Op [6:0] $end
$var wire 3 ," funct3 [2:0] $end
$var wire 7 -" funct7 [6:0] $end
$var wire 2 ." ResultSrc [1:0] $end
$var wire 1 a RegWrite $end
$var wire 1 j MemWrite $end
$var wire 1 k Jump $end
$var wire 3 /" ImmSrc [2:0] $end
$var wire 1 o Branch $end
$var wire 2 0" ALUSrcB [1:0] $end
$var wire 1 q ALUSrcA $end
$var wire 2 1" ALUOp [1:0] $end
$var wire 4 2" ALUControl [3:0] $end
$scope module ALU_Decoder $end
$var wire 3 3" funct3 [2:0] $end
$var wire 7 4" funct7 [6:0] $end
$var wire 7 5" op [6:0] $end
$var wire 1 6" RtypeSub $end
$var wire 2 7" ALUOp [1:0] $end
$var reg 4 8" ALUControl [3:0] $end
$upscope $end
$scope module Main_Decoder $end
$var wire 7 9" Op [6:0] $end
$var wire 2 :" ResultSrc [1:0] $end
$var wire 1 a RegWrite $end
$var wire 1 j MemWrite $end
$var wire 1 k Jump $end
$var wire 3 ;" ImmSrc [2:0] $end
$var wire 1 o Branch $end
$var wire 2 <" ALUSrcB [1:0] $end
$var wire 1 q ALUSrcA $end
$var wire 2 =" ALUOp [1:0] $end
$var reg 14 >" controls [13:0] $end
$upscope $end
$upscope $end
$upscope $end
$scope module Execute $end
$var wire 4 ?" ALUControlE [3:0] $end
$var wire 1 N ALUSrcAE $end
$var wire 2 @" ALUSrcBE [1:0] $end
$var wire 1 L BranchE $end
$var wire 32 A" ImmExtE [31:0] $end
$var wire 1 E JumpE $end
$var wire 1 D MemWriteE $end
$var wire 1 C MemWriteM $end
$var wire 32 B" PCE [31:0] $end
$var wire 32 C" PCPlus4E [31:0] $end
$var wire 32 D" PCPlus4M [31:0] $end
$var wire 1 : PCSrcE $end
$var wire 32 E" RD1E [31:0] $end
$var wire 32 F" RD2E [31:0] $end
$var wire 5 G" RdE [4:0] $end
$var wire 5 H" RdM [4:0] $end
$var wire 1 0 RegWriteE $end
$var wire 1 / RegWriteM $end
$var wire 2 I" ResultSrcE [1:0] $end
$var wire 2 J" ResultSrcM [1:0] $end
$var wire 32 K" WriteDataM [31:0] $end
$var wire 1 # clk $end
$var wire 1 $ rst $end
$var wire 1 L" ZeroE $end
$var wire 32 M" SrcBE [31:0] $end
$var wire 32 N" SrcAE_Inter [31:0] $end
$var wire 32 O" SrcAE [31:0] $end
$var wire 32 P" ResultW [31:0] $end
$var wire 32 Q" RD2E_Mux [31:0] $end
$var wire 32 R" PCTargetE [31:0] $end
$var wire 2 S" ForwardBE [1:0] $end
$var wire 2 T" ForwardAE [1:0] $end
$var wire 32 U" ALUResultM [31:0] $end
$var wire 32 V" ALUResultE [31:0] $end
$var reg 32 W" ALUResultM_reg [31:0] $end
$var reg 1 X" MemWriteM_reg $end
$var reg 32 Y" PCPlus4M_reg [31:0] $end
$var reg 5 Z" RdM_reg [4:0] $end
$var reg 1 [" RegWriteM_reg $end
$var reg 2 \" ResultSrcM_reg [1:0] $end
$var reg 32 ]" WriteDataM_reg [31:0] $end
$scope module ADDER_E $end
$var wire 32 ^" a [31:0] $end
$var wire 32 _" b [31:0] $end
$var wire 32 `" c [31:0] $end
$upscope $end
$scope module ALU_E $end
$var wire 32 a" A [31:0] $end
$var wire 4 b" ALUControl [3:0] $end
$var wire 1 L" Zero $end
$var wire 32 c" Sum [31:0] $end
$var wire 1 d" Negative $end
$var wire 32 e" B [31:0] $end
$var reg 1 f" OverFlow $end
$var reg 32 g" Result [31:0] $end
$upscope $end
$scope module MUX3X1_1 $end
$var wire 32 h" a [31:0] $end
$var wire 32 i" c [31:0] $end
$var wire 2 j" s [1:0] $end
$var wire 32 k" d [31:0] $end
$var wire 32 l" b [31:0] $end
$upscope $end
$scope module MUX3X1_2 $end
$var wire 32 m" a [31:0] $end
$var wire 32 n" c [31:0] $end
$var wire 2 o" s [1:0] $end
$var wire 32 p" d [31:0] $end
$var wire 32 q" b [31:0] $end
$upscope $end
$scope module MUX3X1_3 $end
$var wire 32 r" a [31:0] $end
$var wire 32 s" b [31:0] $end
$var wire 32 t" c [31:0] $end
$var wire 2 u" s [1:0] $end
$var wire 32 v" d [31:0] $end
$upscope $end
$upscope $end
$scope module Fetch $end
$var wire 32 w" PCD [31:0] $end
$var wire 32 x" PCPlus4D [31:0] $end
$var wire 32 y" PCPlus4F_Fed [31:0] $end
$var wire 1 # clk $end
$var wire 1 $ rst $end
$var wire 1 ' en $end
$var wire 1 K clr $end
$var wire 32 z" PCPlus4F [31:0] $end
$var wire 32 {" PCF [31:0] $end
$var wire 32 |" InstrF [31:0] $end
$var wire 32 }" InstrD [31:0] $end
$var reg 32 ~" InstrF_reg [31:0] $end
$var reg 32 !# PCF_reg [31:0] $end
$var reg 32 "# PCPlus4F_reg [31:0] $end
$scope module I_MEM $end
$var wire 1 $ rst $end
$var wire 32 ## RD [31:0] $end
$var wire 32 $# A [31:0] $end
$upscope $end
$scope module PCAdder $end
$var wire 32 %# b [31:0] $end
$var wire 32 &# c [31:0] $end
$var wire 32 '# a [31:0] $end
$upscope $end
$upscope $end
$scope module HazardUnit $end
$var wire 1 K FlushD $end
$var wire 1 J FlushE $end
$var wire 1 : PCSrcE $end
$var wire 5 (# RdE [4:0] $end
$var wire 5 )# RdM [4:0] $end
$var wire 1 / RegWriteM $end
$var wire 1 *# ResultSrcE0 $end
$var wire 5 +# Rs1D [4:0] $end
$var wire 5 ,# Rs1E [4:0] $end
$var wire 5 -# Rs2D [4:0] $end
$var wire 5 .# Rs2E [4:0] $end
$var wire 1 ' StallD $end
$var wire 1 & StallF $end
$var wire 1 /# lwStall $end
$var wire 1 0# rst $end
$var wire 1 . RegWriteW $end
$var wire 5 1# RdW [4:0] $end
$var reg 2 2# ForwardAE [1:0] $end
$var reg 2 3# ForwardBE [1:0] $end
$upscope $end
$scope module Memory $end
$var wire 32 4# ALUResultM [31:0] $end
$var wire 1 C MemWriteM $end
$var wire 32 5# PCPlus4M [31:0] $end
$var wire 5 6# RdM [4:0] $end
$var wire 1 / RegWriteM $end
$var wire 1 . RegWriteW $end
$var wire 2 7# ResultSrcM [1:0] $end
$var wire 32 8# WriteDataM [31:0] $end
$var wire 1 # clk $end
$var wire 1 $ rst $end
$var wire 2 9# ResultSrcW [1:0] $end
$var wire 32 :# ReadDataW [31:0] $end
$var wire 32 ;# ReadDataM [31:0] $end
$var wire 5 <# RdW [4:0] $end
$var wire 32 =# PCPlus4W [31:0] $end
$var wire 32 ># ALUResultW [31:0] $end
$var reg 32 ?# ALUResultW_reg [31:0] $end
$var reg 32 @# PCPlus4W_reg [31:0] $end
$var reg 32 A# RdW_reg [31:0] $end
$var reg 32 B# ReadDataW_reg [31:0] $end
$var reg 1 C# RegWriteW_reg $end
$var reg 2 D# ResultSrcW_reg [1:0] $end
$scope module DataMem $end
$var wire 32 E# A [31:0] $end
$var wire 32 F# WD [31:0] $end
$var wire 1 C WE $end
$var wire 1 # clk $end
$var wire 1 $ rst $end
$var wire 32 G# RD [31:0] $end
$upscope $end
$upscope $end
$scope module Program_Counter $end
$var wire 32 H# PCPlus4F [31:0] $end
$var wire 1 : PCSrcE $end
$var wire 32 I# PCTargetE [31:0] $end
$var wire 1 # clk $end
$var wire 1 & en $end
$var wire 1 $ rst $end
$var wire 32 J# PC_Next [31:0] $end
$var reg 32 K# PC [31:0] $end
$scope module MUX_FETCH $end
$var wire 32 L# a [31:0] $end
$var wire 32 M# b [31:0] $end
$var wire 1 : s $end
$var wire 32 N# c [31:0] $end
$upscope $end
$upscope $end
$scope module WriteBack $end
$var wire 32 O# ALUResultW [31:0] $end
$var wire 32 P# PCPlus4W [31:0] $end
$var wire 32 Q# ReadDataW [31:0] $end
$var wire 2 R# ResultSrcW [1:0] $end
$var wire 1 # clk $end
$var wire 1 $ rst $end
$var wire 32 S# ResultW [31:0] $end
$scope module result_mux $end
$var wire 32 T# a [31:0] $end
$var wire 32 U# b [31:0] $end
$var wire 32 V# c [31:0] $end
$var wire 2 W# s [1:0] $end
$var wire 32 X# d [31:0] $end
$upscope $end
$upscope $end
$upscope $end
$upscope $end
$enddefinitions $end
$comment Show the parameter values. $end
$dumpall
$end
#0
$dumpvars
b0 X#
b0 W#
b0 V#
b0 U#
b0 T#
b0 S#
b0 R#
b0 Q#
b0 P#
b0 O#
b100 N#
b0 M#
b100 L#
b0 K#
b100 J#
b0 I#
b100 H#
b0 G#
b0 F#
b0 E#
b0 D#
0C#
b0 B#
b0 A#
b0 @#
b0 ?#
b0 >#
b0 =#
b0 <#
b0 ;#
b0 :#
b0 9#
b0 8#
b0 7#
b0 6#
b0 5#
b0 4#
b0 3#
b0 2#
b0 1#
z0#
0/#
b0 .#
b0 -#
b0 ,#
b0 +#
0*#
b0 )#
b0 (#
b0 '#
b100 &#
b100 %#
b0 $#
b0 ##
b0 "#
b0 !#
b0 ~"
b0 }"
b0 |"
b0 {"
b100 z"
b100 y"
b0 x"
b0 w"
b0 v"
b0 u"
b0 t"
b0 s"
b0 r"
b0 q"
b0 p"
b0 o"
b0 n"
b0 m"
b0 l"
b0 k"
b0 j"
b0 i"
b0 h"
b0 g"
0f"
b0 e"
0d"
b0 c"
b0 b"
b0 a"
b0 `"
b0 _"
b0 ^"
b0 ]"
b0 \"
0["
b0 Z"
b0 Y"
0X"
b0 W"
b0 V"
b0 U"
b0 T"
b0 S"
b0 R"
b0 Q"
b0 P"
b0 O"
b0 N"
b0 M"
1L"
b0 K"
b0 J"
b0 I"
b0 H"
b0 G"
b0 F"
b0 E"
b0 D"
b0 C"
b0 B"
b0 A"
b0 @"
b0 ?"
b0 >"
b0 ="
b0 <"
b0 ;"
b0 :"
b0 9"
b0 8"
b0 7"
06"
b0 5"
b0 4"
b0 3"
b0 2"
b0 1"
b0 0"
b0 /"
b0 ."
b0 -"
b0 ,"
b0 +"
b0 *"
b0 )"
b0 ("
b0 '"
b0 &"
b0 %"
b0 $"
b0 #"
b0 ""
b0 !"
0~
b0 }
b0 |
b0 {
b0 z
b0 y
b0 x
b0 w
0v
b0 u
b0 t
b0 s
b0 r
0q
b0 p
0o
b0 n
b0 m
b0 l
0k
0j
b0 i
b0 h
b0 g
b0 f
b0 e
b0 d
b0 c
b0 b
0a
b0 `
b0 _
b0 ^
b0 ]
b0 \
b0 [
b0 Z
b0 Y
b0 X
b0 W
b0 V
b0 U
b0 T
b0 S
b0 R
b0 Q
b0 P
b0 O
0N
b0 M
0L
0K
0J
b0 I
b0 H
b0 G
b0 F
0E
0D
0C
b0 B
b0 A
b0 @
b0 ?
b0 >
b100 =
b0 <
b0 ;
0:
b0 9
b0 8
b0 7
b0 6
b0 5
b0 4
b0 3
b0 2
b0 1
00
0/
0.
b0 -
b0 ,
b0 +
b0 *
b0 )
b0 (
0'
0&
b0 %
0$
0#
0"
0!
$end
#1
1!
#5
b100 ?
b100 h
b100 x"
b100 "#
0!
1#
#6
1"
#10
0"
0#
#11
1!
#15
b100 >
b100 V
b100 C"
b100 x
0!
1#
#16
1"
#20
b1100000000001000010011 |"
b1100000000001000010011 ##
0"
0#
1$
#21
1!
#25
1a
b1 p
b1 0"
b1 <"
b10 1"
b10 7"
b10 ="
b11 n
b11 *"
bx f
bx %"
b10000010000100 >"
b11100100000000100010011 |"
b11100100000000100010011 ##
b110000000000100 ("
b11 #"
b10011 +"
b10011 5"
b10011 9"
b100 b
b11 (
b11 ^
b11 -#
b11 c
b1000 J#
b1000 N#
b100 <
b100 D"
b100 5#
b100 Y"
b1100000000001000010011 F
b1100000000001000010011 l
b1100000000001000010011 }"
b1100000000001000010011 ~"
b1000 =
b1000 y"
b1000 H#
b1000 L#
b1000 z"
b1000 &#
b100 B
b100 {"
b100 $#
b100 '#
b100 K#
0!
1#
#26
1"
#30
0"
0#
#31
1!
#35
0L"
b11 V"
b11 g"
b10000010000001010110011 |"
b10000010000001010110011 ##
b111 n
b111 *"
bx g
bx &"
b11 c"
b1100 J#
b1100 N#
b1110010000000010 ("
b111 #"
b100 ""
b10 b
b111 (
b111 ^
b111 -#
b111 c
b100 )
b100 ]
b100 +#
b100 d
b11 M"
b11 e"
b11 v"
bx Q"
bx p"
bx r"
b1100 =
b1100 y"
b1100 H#
b1100 L#
b1100 z"
b1100 &#
b1000 B
b1000 {"
b1000 $#
b1000 '#
b1000 K#
b1000 ?
b1000 h
b1000 x"
b1000 "#
b100 A
b100 i
b100 w"
b100 !#
b11100100000000100010011 F
b11100100000000100010011 l
b11100100000000100010011 }"
b11100100000000100010011 ~"
b11 2
b11 [
b11 .#
b11 }
b1 M
b1 S
b1 t
b1 @"
b1 u"
10
1~
b100 6
b100 Y
b100 {
b100 G"
b100 (#
b11 9
b11 R"
b11 `"
b11 t"
b11 I#
b11 M#
b11 G
b11 T
b11 u
b11 A"
b11 _"
b11 s"
bx 7
bx X
bx z
bx F"
bx m"
b100 ;
b100 =#
b100 @#
b100 P#
b100 V#
0!
1#
#36
1"
#40
0"
0#
#41
1!
#45
0L"
0d"
b1010 V"
b1010 g"
0f"
bx m
bx )"
bx /"
bx ;"
b0 p
b0 0"
b0 <"
b111 M"
b111 e"
b111 v"
b1010 c"
b11 O"
b11 a"
bx n
bx *"
b1xxx0000000100 >"
b10100010100001100110011 |"
b10100010100001100110011 ##
bx ;#
bx G#
b10 I
b10 T"
b10 j"
b10 2#
b11 N"
b11 k"
b1000001000000101 ("
b100 #"
b10 ""
b110011 +"
b110011 5"
b110011 9"
b101 b
b100 (
b100 ^
b100 -#
b100 c
b10 )
b10 ]
b10 +#
b10 d
b10000 J#
b10000 N#
b100 5
b100 H"
b100 )#
b100 6#
b100 Z"
bx %
bx K"
bx 8#
bx F#
bx ]"
b11 P
b11 U"
b11 W"
b11 i"
b11 n"
b11 4#
b11 E#
1/
1["
b111 2
b111 [
b111 .#
b111 }
b100 3
b100 Z
b100 ,#
b100 |
b10 6
b10 Y
b10 {
b10 G"
b10 (#
b1000 >
b1000 V
b1000 C"
b1000 x
b111 G
b111 T
b111 u
b111 A"
b111 _"
b111 s"
b1011 9
b1011 R"
b1011 `"
b1011 t"
b1011 I#
b1011 M#
b100 @
b100 U
b100 w
b100 B"
b100 ^"
bx 8
bx W
bx y
bx E"
bx h"
b1100 ?
b1100 h
b1100 x"
b1100 "#
b1000 A
b1000 i
b1000 w"
b1000 !#
b10000010000001010110011 F
b10000010000001010110011 l
b10000010000001010110011 }"
b10000010000001010110011 ~"
b10000 =
b10000 y"
b10000 H#
b10000 L#
b10000 z"
b10000 &#
b1100 B
b1100 {"
b1100 $#
b1100 '#
b1100 K#
0!
1#
#46
1"
#50
0"
0#
#51
1!
#55
0L"
0d"
b1010 O"
b1010 a"
b1101 V"
b1101 g"
0f"
b1010 N"
b1010 k"
b11100100100001110010011 |"
b11100100100001110010011 ##
b110 r
b110 2"
b110 8"
b1101 c"
b11 Q"
b11 p"
b11 r"
b10100 J#
b10100 N#
b1010001010000110 ("
b101 #"
b100 ,"
b100 3"
b110 b
b101 (
b101 ^
b101 -#
b101 c
b11 M"
b11 e"
b11 v"
b1 H
b1 S"
b1 o"
b1 3#
b10 I
b10 T"
b10 j"
b10 2#
b11 *
b11 _
b11 $"
b11 P"
b11 l"
b11 q"
b11 S#
b11 X#
b100 4
b100 e
b100 '"
b100 1#
b100 <#
b10100 =
b10100 y"
b10100 H#
b10100 L#
b10100 z"
b10100 &#
b10000 B
b10000 {"
b10000 $#
b10000 '#
b10000 K#
b10000 ?
b10000 h
b10000 x"
b10000 "#
b1100 A
b1100 i
b1100 w"
b1100 !#
b10100010100001100110011 F
b10100010100001100110011 l
b10100010100001100110011 }"
b10100010100001100110011 ~"
b100 2
b100 [
b100 .#
b100 }
b10 3
b10 Z
b10 ,#
b10 |
b0 M
b0 S
b0 t
b0 @"
b0 u"
b101 6
b101 Y
b101 {
b101 G"
b101 (#
b1100 >
b1100 V
b1100 C"
b1100 x
bx G
bx T
bx u
bx A"
bx _"
bx s"
bx 9
bx R"
bx `"
bx t"
bx I#
bx M#
b1000 @
b1000 U
b1000 w
b1000 B"
b1000 ^"
b1000 <
b1000 D"
b1000 5#
b1000 Y"
b10 5
b10 H"
b10 )#
b10 6#
b10 Z"
b1010 P
b1010 U"
b1010 W"
b1010 i"
b1010 n"
b1010 4#
b1010 E#
1.
1C#
b11 O
b11 >#
b11 ?#
b11 O#
b11 T#
b100 A#
bx 1
bx :#
bx B#
bx Q#
bx U#
0!
1#
#56
1"
#60
0"
0#
#61
1!
#65
0L"
0d"
b1101 M"
b1101 e"
b1101 v"
b111 n
b111 *"
b1101 Q"
b1101 p"
b1101 r"
b10111 c"
b1010 O"
b1010 a"
b0 m
b0 )"
b0 /"
b0 ;"
b1 p
b1 0"
b1 <"
b1010 N"
b1010 k"
b11 g
b11 &"
b10000010000100 >"
b1111111100110110010000010011 |"
b1111111100110110010000010011 ##
b1010 *
b1010 _
b1010 $"
b1010 P"
b1010 l"
b1010 q"
b1010 S#
b1010 X#
b10 4
b10 e
b10 '"
b10 1#
b10 <#
b10 H
b10 S"
b10 o"
b10 3#
b1 I
b1 T"
b1 j"
b1 2#
b111 V"
b111 g"
b1110010010000111 ("
b111 #"
b100 ""
b10011 +"
b10011 5"
b10011 9"
b111 b
b111 (
b111 ^
b111 -#
b111 c
b100 )
b100 ]
b100 +#
b100 d
b11000 J#
b11000 N#
b1010 O
b1010 >#
b1010 ?#
b1010 O#
b1010 T#
b1000 ;
b1000 =#
b1000 @#
b1000 P#
b1000 V#
b10 A#
b1100 <
b1100 D"
b1100 5#
b1100 Y"
b101 5
b101 H"
b101 )#
b101 6#
b101 Z"
b11 %
b11 K"
b11 8#
b11 F#
b11 ]"
b1101 P
b1101 U"
b1101 W"
b1101 i"
b1101 n"
b1101 4#
b1101 E#
b101 2
b101 [
b101 .#
b101 }
b110 Q
b110 R
b110 s
b110 ?"
b110 b"
b110 6
b110 Y
b110 {
b110 G"
b110 (#
b10000 >
b10000 V
b10000 C"
b10000 x
b1100 @
b1100 U
b1100 w
b1100 B"
b1100 ^"
b10100 ?
b10100 h
b10100 x"
b10100 "#
b10000 A
b10000 i
b10000 w"
b10000 !#
b11100100100001110010011 F
b11100100100001110010011 l
b11100100100001110010011 }"
b11100100100001110010011 ~"
b11000 =
b11000 y"
b11000 H#
b11000 L#
b11000 z"
b11000 &#
b10100 B
b10100 {"
b10100 $#
b10100 '#
b10100 K#
0!
1#
#66
1"
#70
0"
0#
#71
1!
#75
b11 O"
b11 a"
b100000101110010010110011 |"
b100000101110010010110011 ##
b11111111 n
b11111111 *"
bx g
bx &"
b11 r
b11 2"
b11 8"
b1010 c"
b100 V"
b100 g"
bx Q"
bx p"
bx r"
b11 N"
b11 k"
b11100 J#
b11100 N#
b111111110011011001000 ("
b11111 #"
b110 ""
b111 -"
b111 4"
b110 ,"
b110 3"
b1000 b
b11111 (
b11111 ^
b11111 -#
b11111 c
b110 )
b110 ]
b110 +#
b110 d
b111 M"
b111 e"
b111 v"
b0 H
b0 S"
b0 o"
b0 3#
b0 I
b0 T"
b0 j"
b0 2#
b1101 *
b1101 _
b1101 $"
b1101 P"
b1101 l"
b1101 q"
b1101 S#
b1101 X#
b101 4
b101 e
b101 '"
b101 1#
b101 <#
b11100 =
b11100 y"
b11100 H#
b11100 L#
b11100 z"
b11100 &#
b11000 B
b11000 {"
b11000 $#
b11000 '#
b11000 K#
b11000 ?
b11000 h
b11000 x"
b11000 "#
b10100 A
b10100 i
b10100 w"
b10100 !#
b1111111100110110010000010011 F
b1111111100110110010000010011 l
b1111111100110110010000010011 }"
b1111111100110110010000010011 ~"
b111 2
b111 [
b111 .#
b111 }
b100 3
b100 Z
b100 ,#
b100 |
b1 M
b1 S
b1 t
b1 @"
b1 u"
b111 6
b111 Y
b111 {
b111 G"
b111 (#
b10100 >
b10100 V
b10100 C"
b10100 x
b10111 9
b10111 R"
b10111 `"
b10111 t"
b10111 I#
b10111 M#
b111 G
b111 T
b111 u
b111 A"
b111 _"
b111 s"
b10000 @
b10000 U
b10000 w
b10000 B"
b10000 ^"
b11 8
b11 W
b11 y
b11 E"
b11 h"
b10000 <
b10000 D"
b10000 5#
b10000 Y"
b110 5
b110 H"
b110 )#
b110 6#
b110 Z"
b1101 %
b1101 K"
b1101 8#
b1101 F#
b1101 ]"
b111 P
b111 U"
b111 W"
b111 i"
b111 n"
b111 4#
b111 E#
b1101 O
b1101 >#
b1101 ?#
b1101 O#
b1101 T#
b1100 ;
b1100 =#
b1100 @#
b1100 P#
b1100 V#
b101 A#
0!
1#
#76
1"
#80
0"
0#
#81
1!
#85
0d"
bx m
bx )"
bx /"
bx ;"
b0 p
b0 0"
b0 <"
b1 I
b1 T"
b1 j"
b1 2#
b11111111 M"
b11111111 e"
b11111111 v"
b111 O"
b111 a"
bx n
bx *"
b1101 g
b1101 &"
b1xxx0000000100 >"
b111100111111010100010011 |"
b111100111111010100010011 ##
b111 *
b111 _
b111 $"
b111 P"
b111 l"
b111 q"
b111 S#
b111 X#
b110 4
b110 e
b110 '"
b110 1#
b110 <#
b11111111 V"
b11111111 g"
b11111111111111111111111100001000 c"
b111 N"
b111 k"
b10000010111001001 ("
b1000 #"
b101 ""
b0 -"
b0 4"
b110011 +"
b110011 5"
b110011 9"
b1001 b
b1000 (
b1000 ^
b1000 -#
b1000 c
b101 )
b101 ]
b101 +#
b101 d
b100000 J#
b100000 N#
b111 O
b111 >#
b111 ?#
b111 O#
b111 T#
b10000 ;
b10000 =#
b10000 @#
b10000 P#
b10000 V#
b110 A#
b10100 <
b10100 D"
b10100 5#
b10100 Y"
b111 5
b111 H"
b111 )#
b111 6#
b111 Z"
bx %
bx K"
bx 8#
bx F#
bx ]"
b100 P
b100 U"
b100 W"
b100 i"
b100 n"
b100 4#
b100 E#
b11111 2
b11111 [
b11111 .#
b11111 }
b110 3
b110 Z
b110 ,#
b110 |
b11 Q
b11 R
b11 s
b11 ?"
b11 b"
b1000 6
b1000 Y
b1000 {
b1000 G"
b1000 (#
b11000 >
b11000 V
b11000 C"
b11000 x
b11111111 G
b11111111 T
b11111111 u
b11111111 A"
b11111111 _"
b11111111 s"
b100010011 9
b100010011 R"
b100010011 `"
b100010011 t"
b100010011 I#
b100010011 M#
b10100 @
b10100 U
b10100 w
b10100 B"
b10100 ^"
bx 8
bx W
bx y
bx E"
bx h"
b11100 ?
b11100 h
b11100 x"
b11100 "#
b11000 A
b11000 i
b11000 w"
b11000 !#
b100000101110010010110011 F
b100000101110010010110011 l
b100000101110010010110011 }"
b100000101110010010110011 ~"
b100000 =
b100000 y"
b100000 H#
b100000 L#
b100000 z"
b100000 &#
b11100 B
b11100 {"
b11100 $#
b11100 '#
b11100 K#
0!
1#
#86
1"
#90
0"
0#
#91
1!
