src/wave.vcd
$date
	Fri Jan 12 00:40:03 2024
$end
$version
	Icarus Verilog
$end
$timescale
	1s
$end
$scope module top_tb $end
$var reg 1 ! clk1 $end
$var reg 1 " clk2 $end
$var reg 1 # clk3 $end
$var reg 1 $ rst $end
$scope module TEST $end
$var wire 1 # clk1 $end
$var wire 1 # clk2 $end
$var wire 1 $ rst $end
$var wire 32 % WriteDataM [31:0] $end
$var wire 1 & StallF $end
$var wire 1 ' StallD $end
$var wire 5 ( Rs2D [4:0] $end
$var wire 5 ) Rs1D [4:0] $end
$var wire 32 * ResultW [31:0] $end
$var wire 2 + ResultSrcW [1:0] $end
$var wire 2 , ResultSrcM [1:0] $end
$var wire 2 - ResultSrcE [1:0] $end
$var wire 1 . RegWriteW $end
$var wire 1 / RegWriteM $end
$var wire 1 0 RegWriteE $end
$var wire 32 1 ReadDataW [31:0] $end
$var wire 5 2 RS2_E [4:0] $end
$var wire 5 3 RS1_E [4:0] $end
$var wire 5 4 RDW [4:0] $end
$var wire 5 5 RDM [4:0] $end
$var wire 5 6 RDE [4:0] $end
$var wire 32 7 RD2E [31:0] $end
$var wire 32 8 RD1E [31:0] $end
$var wire 32 9 PCTargetE [31:0] $end
$var wire 1 : PCSrcE $end
$var wire 32 ; PCPlus4W [31:0] $end
$var wire 32 < PCPlus4M [31:0] $end
$var wire 32 = PCPlus4F_Fed [31:0] $end
$var wire 32 > PCPlus4E [31:0] $end
$var wire 32 ? PCPlus4D [31:0] $end
$var wire 32 @ PCE [31:0] $end
$var wire 32 A PCD [31:0] $end
$var wire 32 B PC [31:0] $end
$var wire 1 C MemWriteM $end
$var wire 1 D MemWriteE $end
$var wire 1 E JumpE $end
$var wire 32 F InstrD [31:0] $end
$var wire 32 G ImmExtE [31:0] $end
$var wire 2 H ForwardBE [1:0] $end
$var wire 2 I ForwardAE [1:0] $end
$var wire 1 J FlushE $end
$var wire 1 K FlushD $end
$var wire 1 L BranchE $end
$var wire 2 M ALUSrcBE [1:0] $end
$var wire 1 N ALUSrcAE $end
$var wire 32 O ALUResultW [31:0] $end
$var wire 32 P ALUResultM [31:0] $end
$var wire 4 Q ALUControlE [3:0] $end
$scope module Decode $end
$var wire 4 R ALUControlE [3:0] $end
$var wire 1 N ALUSrcAE $end
$var wire 2 S ALUSrcBE [1:0] $end
$var wire 1 L BranchE $end
$var wire 32 T ImmExtE [31:0] $end
$var wire 1 E JumpE $end
$var wire 1 D MemWriteE $end
$var wire 32 U PCE [31:0] $end
$var wire 32 V PCPlus4E [31:0] $end
$var wire 32 W RD1E [31:0] $end
$var wire 32 X RD2E [31:0] $end
$var wire 5 Y RDE [4:0] $end
$var wire 5 Z RS1E [4:0] $end
$var wire 5 [ RS2E [4:0] $end
$var wire 1 0 RegWriteE $end
$var wire 2 \ ResultSrcE [1:0] $end
$var wire 5 ] Rs1D [4:0] $end
$var wire 5 ^ Rs2D [4:0] $end
$var wire 1 # clk $end
$var wire 1 $ rst $end
$var wire 1 J clr $end
$var wire 32 _ ResultW [31:0] $end
$var wire 2 ` ResultSrcD [1:0] $end
$var wire 1 . RegWriteW $end
$var wire 1 a RegWriteD $end
$var wire 5 b RdD [4:0] $end
$var wire 5 c RS2D [4:0] $end
$var wire 5 d RS1D [4:0] $end
$var wire 5 e RDW [4:0] $end
$var wire 32 f RD2D [31:0] $end
$var wire 32 g RD1D [31:0] $end
$var wire 32 h PCPlus4D [31:0] $end
$var wire 32 i PCD [31:0] $end
$var wire 1 j MemWriteD $end
$var wire 1 k JumpD $end
$var wire 32 l InstrD [31:0] $end
$var wire 3 m ImmSrcD [2:0] $end
$var wire 32 n ImmExtD [31:0] $end
$var wire 1 o BranchD $end
$var wire 2 p ALUSrcBD [1:0] $end
$var wire 1 q ALUSrcAD $end
$var wire 4 r ALUControlD [3:0] $end
$var reg 4 s ALUControlD_reg [3:0] $end
$var reg 1 N ALUSrcAD_reg $end
$var reg 2 t ALUSrcBD_reg [1:0] $end
$var reg 1 L BranchD_reg $end
$var reg 32 u ImmExtD_reg [31:0] $end
$var reg 1 E JumpD_reg $end
$var reg 1 v MemWriteD_reg $end
$var reg 32 w PCD_reg [31:0] $end
$var reg 32 x PCPlus4D_reg [31:0] $end
$var reg 32 y RD1D_reg [31:0] $end
$var reg 32 z RD2D_reg [31:0] $end
$var reg 5 { RDD_reg [4:0] $end
$var reg 5 | RS1D_reg [4:0] $end
$var reg 5 } RS2D_reg [4:0] $end
$var reg 1 ~ RegWriteD_reg $end
$var reg 2 !" ResultSrcD_reg [1:0] $end
$scope module RegFile $end
$var wire 5 "" A1 [4:0] $end
$var wire 5 #" A2 [4:0] $end
$var wire 1 # clk $end
$var wire 1 $ rst $end
$var wire 1 . WE3 $end
$var wire 32 $" WD3 [31:0] $end
$var wire 32 %" RD2 [31:0] $end
$var wire 32 &" RD1 [31:0] $end
$var wire 5 '" A3 [4:0] $end
$scope begin $ivl_for_loop0 $end
$var integer 32 (" i [31:0] $end
$upscope $end
$upscope $end
$scope module SignExtend $end
$var wire 25 )" In [31:7] $end
$var wire 3 *" ImmSrc [2:0] $end
$var reg 32 +" Imm_Ext [31:0] $end
$upscope $end
$scope module ctrl_unit $end
$var wire 7 ," Op [6:0] $end
$var wire 3 -" funct3 [2:0] $end
$var wire 7 ." funct7 [6:0] $end
$var wire 2 /" ResultSrc [1:0] $end
$var wire 1 a RegWrite $end
$var wire 1 j MemWrite $end
$var wire 1 k Jump $end
$var wire 3 0" ImmSrc [2:0] $end
$var wire 1 o Branch $end
$var wire 2 1" ALUSrcB [1:0] $end
$var wire 1 q ALUSrcA $end
$var wire 2 2" ALUOp [1:0] $end
$var wire 4 3" ALUControl [3:0] $end
$scope module ALU_Decoder $end
$var wire 3 4" funct3 [2:0] $end
$var wire 7 5" funct7 [6:0] $end
$var wire 7 6" op [6:0] $end
$var wire 1 7" RtypeSub $end
$var wire 2 8" ALUOp [1:0] $end
$var reg 4 9" ALUControl [3:0] $end
$upscope $end
$scope module Main_Decoder $end
$var wire 7 :" Op [6:0] $end
$var wire 2 ;" ResultSrc [1:0] $end
$var wire 1 a RegWrite $end
$var wire 1 j MemWrite $end
$var wire 1 k Jump $end
$var wire 3 <" ImmSrc [2:0] $end
$var wire 1 o Branch $end
$var wire 2 =" ALUSrcB [1:0] $end
$var wire 1 q ALUSrcA $end
$var wire 2 >" ALUOp [1:0] $end
$var reg 14 ?" controls [13:0] $end
$upscope $end
$upscope $end
$upscope $end
$scope module Execute $end
$var wire 4 @" ALUControlE [3:0] $end
$var wire 1 N ALUSrcAE $end
$var wire 2 A" ALUSrcBE [1:0] $end
$var wire 1 L BranchE $end
$var wire 32 B" ImmExtE [31:0] $end
$var wire 1 E JumpE $end
$var wire 1 D MemWriteE $end
$var wire 1 C MemWriteM $end
$var wire 32 C" PCE [31:0] $end
$var wire 32 D" PCPlus4E [31:0] $end
$var wire 32 E" PCPlus4M [31:0] $end
$var wire 1 : PCSrcE $end
$var wire 32 F" RD1E [31:0] $end
$var wire 32 G" RD2E [31:0] $end
$var wire 5 H" RdE [4:0] $end
$var wire 5 I" RdM [4:0] $end
$var wire 1 0 RegWriteE $end
$var wire 1 / RegWriteM $end
$var wire 2 J" ResultSrcE [1:0] $end
$var wire 2 K" ResultSrcM [1:0] $end
$var wire 32 L" WriteDataM [31:0] $end
$var wire 1 # clk $end
$var wire 1 $ rst $end
$var wire 1 M" ZeroE $end
$var wire 32 N" SrcBE [31:0] $end
$var wire 32 O" SrcAE_Inter [31:0] $end
$var wire 32 P" SrcAE [31:0] $end
$var wire 32 Q" ResultW [31:0] $end
$var wire 32 R" RD2E_Mux [31:0] $end
$var wire 32 S" PCTargetE [31:0] $end
$var wire 2 T" ForwardBE [1:0] $end
$var wire 2 U" ForwardAE [1:0] $end
$var wire 32 V" ALUResultM [31:0] $end
$var wire 32 W" ALUResultE [31:0] $end
$var reg 32 X" ALUResultM_reg [31:0] $end
$var reg 1 Y" MemWriteM_reg $end
$var reg 32 Z" PCPlus4M_reg [31:0] $end
$var reg 5 [" RdM_reg [4:0] $end
$var reg 1 \" RegWriteM_reg $end
$var reg 2 ]" ResultSrcM_reg [1:0] $end
$var reg 32 ^" WriteDataM_reg [31:0] $end
$scope module ADDER_E $end
$var wire 32 _" a [31:0] $end
$var wire 32 `" b [31:0] $end
$var wire 32 a" c [31:0] $end
$upscope $end
$scope module ALU_E $end
$var wire 32 b" A [31:0] $end
$var wire 4 c" ALUControl [3:0] $end
$var wire 1 M" Zero $end
$var wire 32 d" Sum [31:0] $end
$var wire 1 e" Negative $end
$var wire 32 f" B [31:0] $end
$var reg 1 g" OverFlow $end
$var reg 32 h" Result [31:0] $end
$upscope $end
$scope module MUX3X1_1 $end
$var wire 32 i" a [31:0] $end
$var wire 32 j" c [31:0] $end
$var wire 2 k" s [1:0] $end
$var wire 32 l" d [31:0] $end
$var wire 32 m" b [31:0] $end
$upscope $end
$scope module MUX3X1_2 $end
$var wire 32 n" a [31:0] $end
$var wire 32 o" c [31:0] $end
$var wire 2 p" s [1:0] $end
$var wire 32 q" d [31:0] $end
$var wire 32 r" b [31:0] $end
$upscope $end
$scope module MUX3X1_3 $end
$var wire 32 s" a [31:0] $end
$var wire 32 t" b [31:0] $end
$var wire 32 u" c [31:0] $end
$var wire 2 v" s [1:0] $end
$var wire 32 w" d [31:0] $end
$upscope $end
$upscope $end
$scope module Fetch $end
$var wire 32 x" PCD [31:0] $end
$var wire 32 y" PCPlus4D [31:0] $end
$var wire 32 z" PCPlus4F_Fed [31:0] $end
$var wire 1 # clk $end
$var wire 1 $ rst $end
$var wire 1 ' en $end
$var wire 1 K clr $end
$var wire 32 {" PCPlus4F [31:0] $end
$var wire 32 |" PCF [31:0] $end
$var wire 32 }" InstrF [31:0] $end
$var wire 32 ~" InstrD [31:0] $end
$var reg 32 !# InstrF_reg [31:0] $end
$var reg 32 "# PCF_reg [31:0] $end
$var reg 32 ## PCPlus4F_reg [31:0] $end
$scope module I_MEM $end
$var wire 1 $ rst $end
$var wire 32 $# RD [31:0] $end
$var wire 32 %# A [31:0] $end
$upscope $end
$scope module PCAdder $end
$var wire 32 &# b [31:0] $end
$var wire 32 '# c [31:0] $end
$var wire 32 (# a [31:0] $end
$upscope $end
$upscope $end
$scope module HazardUnit $end
$var wire 1 K FlushD $end
$var wire 1 J FlushE $end
$var wire 1 : PCSrcE $end
$var wire 5 )# RdE [4:0] $end
$var wire 5 *# RdM [4:0] $end
$var wire 1 / RegWriteM $end
$var wire 1 +# ResultSrcE0 $end
$var wire 5 ,# Rs1D [4:0] $end
$var wire 5 -# Rs1E [4:0] $end
$var wire 5 .# Rs2D [4:0] $end
$var wire 5 /# Rs2E [4:0] $end
$var wire 1 ' StallD $end
$var wire 1 & StallF $end
$var wire 1 0# lwStall $end
$var wire 1 1# rst $end
$var wire 1 . RegWriteW $end
$var wire 5 2# RdW [4:0] $end
$var reg 2 3# ForwardAE [1:0] $end
$var reg 2 4# ForwardBE [1:0] $end
$upscope $end
$scope module Memory $end
$var wire 32 5# ALUResultM [31:0] $end
$var wire 1 C MemWriteM $end
$var wire 32 6# PCPlus4M [31:0] $end
$var wire 5 7# RdM [4:0] $end
$var wire 1 / RegWriteM $end
$var wire 1 . RegWriteW $end
$var wire 2 8# ResultSrcM [1:0] $end
$var wire 32 9# WriteDataM [31:0] $end
$var wire 1 # clk $end
$var wire 1 $ rst $end
$var wire 2 :# ResultSrcW [1:0] $end
$var wire 32 ;# ReadDataW [31:0] $end
$var wire 32 <# ReadDataM [31:0] $end
$var wire 5 =# RdW [4:0] $end
$var wire 32 ># PCPlus4W [31:0] $end
$var wire 32 ?# ALUResultW [31:0] $end
$var reg 32 @# ALUResultW_reg [31:0] $end
$var reg 32 A# PCPlus4W_reg [31:0] $end
$var reg 32 B# RdW_reg [31:0] $end
$var reg 32 C# ReadDataW_reg [31:0] $end
$var reg 1 D# RegWriteW_reg $end
$var reg 2 E# ResultSrcW_reg [1:0] $end
$scope module DataMem $end
$var wire 32 F# A [31:0] $end
$var wire 32 G# WD [31:0] $end
$var wire 1 C WE $end
$var wire 1 # clk $end
$var wire 1 $ rst $end
$var wire 32 H# RD [31:0] $end
$upscope $end
$upscope $end
$scope module Program_Counter $end
$var wire 32 I# PCPlus4F [31:0] $end
$var wire 1 : PCSrcE $end
$var wire 32 J# PCTargetE [31:0] $end
$var wire 1 # clk $end
$var wire 1 & en $end
$var wire 1 $ rst $end
$var wire 32 K# PC_Next [31:0] $end
$var reg 32 L# PC [31:0] $end
$scope module MUX_FETCH $end
$var wire 32 M# a [31:0] $end
$var wire 32 N# b [31:0] $end
$var wire 1 : s $end
$var wire 32 O# c [31:0] $end
$upscope $end
$upscope $end
$scope module WriteBack $end
$var wire 32 P# ALUResultW [31:0] $end
$var wire 32 Q# PCPlus4W [31:0] $end
$var wire 32 R# ReadDataW [31:0] $end
$var wire 2 S# ResultSrcW [1:0] $end
$var wire 1 # clk $end
$var wire 1 $ rst $end
$var wire 32 T# ResultW [31:0] $end
$scope module result_mux $end
$var wire 32 U# a [31:0] $end
$var wire 32 V# b [31:0] $end
$var wire 32 W# c [31:0] $end
$var wire 2 X# s [1:0] $end
$var wire 32 Y# d [31:0] $end
$upscope $end
$upscope $end
$upscope $end
$upscope $end
$enddefinitions $end
$comment Show the parameter values. $end
$dumpall
$end
#0
$dumpvars
b0 Y#
b0 X#
b0 W#
b0 V#
b0 U#
b0 T#
b0 S#
b0 R#
b0 Q#
b0 P#
b100 O#
b0 N#
b100 M#
b0 L#
b100 K#
b0 J#
b100 I#
b0 H#
b0 G#
b0 F#
b0 E#
0D#
b0 C#
b0 B#
b0 A#
b0 @#
b0 ?#
b0 >#
b0 =#
b0 <#
b0 ;#
b0 :#
b0 9#
b0 8#
b0 7#
b0 6#
b0 5#
b0 4#
b0 3#
b0 2#
z1#
00#
b0 /#
b0 .#
b0 -#
b0 ,#
0+#
b0 *#
b0 )#
b0 (#
b100 '#
b100 &#
b0 %#
b0 $#
b0 ##
b0 "#
b0 !#
b0 ~"
b0 }"
b0 |"
b100 {"
b100 z"
b0 y"
b0 x"
b0 w"
b0 v"
b0 u"
b0 t"
b0 s"
b0 r"
b0 q"
b0 p"
b0 o"
b0 n"
b0 m"
b0 l"
b0 k"
b0 j"
b0 i"
b0 h"
0g"
b0 f"
0e"
b0 d"
b0 c"
b0 b"
b0 a"
b0 `"
b0 _"
b0 ^"
b0 ]"
0\"
b0 ["
b0 Z"
0Y"
b0 X"
b0 W"
b0 V"
b0 U"
b0 T"
b0 S"
b0 R"
b0 Q"
b0 P"
b0 O"
b0 N"
1M"
b0 L"
b0 K"
b0 J"
b0 I"
b0 H"
b0 G"
b0 F"
b0 E"
b0 D"
b0 C"
b0 B"
b0 A"
b0 @"
b0 ?"
b0 >"
b0 ="
b0 <"
b0 ;"
b0 :"
b0 9"
b0 8"
07"
b0 6"
b0 5"
b0 4"
b0 3"
b0 2"
b0 1"
b0 0"
b0 /"
b0 ."
b0 -"
b0 ,"
b0 +"
b0 *"
b0 )"
b100000 ("
b0 '"
b0 &"
b0 %"
b0 $"
b0 #"
b0 ""
b0 !"
0~
b0 }
b0 |
b0 {
b0 z
b0 y
b0 x
b0 w
0v
b0 u
b0 t
b0 s
b0 r
0q
b0 p
0o
b0 n
b0 m
b0 l
0k
0j
b0 i
b0 h
b0 g
b0 f
b0 e
b0 d
b0 c
b0 b
0a
b0 `
b0 _
b0 ^
b0 ]
b0 \
b0 [
b0 Z
b0 Y
b0 X
b0 W
b0 V
b0 U
b0 T
b0 S
b0 R
b0 Q
b0 P
b0 O
0N
b0 M
0L
0K
0J
b0 I
b0 H
b0 G
b0 F
0E
0D
0C
b0 B
b0 A
b0 @
b0 ?
b0 >
b100 =
b0 <
b0 ;
0:
b0 9
b0 8
b0 7
b0 6
b0 5
b0 4
b0 3
b0 2
b0 1
00
0/
0.
b0 -
b0 ,
b0 +
b0 *
b0 )
b0 (
0'
0&
b0 %
0$
0#
0"
0!
$end
#1
1!
#5
b100 ?
b100 h
b100 y"
b100 ##
0!
1#
#6
1"
#10
0"
0#
#11
1!
#15
b100 >
b100 V
b100 D"
b100 x
0!
1#
#16
1"
#20
b10100000000000010010011 }"
b10100000000000010010011 $#
bx <#
bx H#
0"
0#
1$
#21
1!
#25
1a
b1 p
b1 1"
b1 ="
b10 2"
b10 8"
b10 >"
b101 n
b101 +"
b11111111111111111111111111111111 f
b11111111111111111111111111111111 %"
b10000010000100 ?"
b11100001000000100010011 }"
b11100001000000100010011 $#
b1010000000000001 )"
b101 #"
b10011 ,"
b10011 6"
b10011 :"
b1 b
b101 (
b101 ^
b101 .#
b101 c
b1000 K#
b1000 O#
bx 1
bx ;#
bx C#
bx R#
bx V#
b100 <
b100 E"
b100 6#
b100 Z"
b10100000000000010010011 F
b10100000000000010010011 l
b10100000000000010010011 ~"
b10100000000000010010011 !#
b1000 =
b1000 z"
b1000 I#
b1000 M#
b1000 {"
b1000 '#
b100 B
b100 |"
b100 %#
b100 (#
b100 L#
0!
1#
#26
1"
#30
0"
0#
#31
1!
#35
0M"
b100010000000110110011 }"
b100010000000110110011 $#
b111 n
b111 +"
b11111111111111111111111111111111 g
b11111111111111111111111111111111 &"
b101 d"
b101 W"
b101 h"
b1100 K#
b1100 O#
b1110000100000010 )"
b111 #"
b1 ""
b10 b
b111 (
b111 ^
b111 .#
b111 c
b1 )
b1 ]
b1 ,#
b1 d
b101 N"
b101 f"
b101 w"
b11111111111111111111111111111111 R"
b11111111111111111111111111111111 q"
b11111111111111111111111111111111 s"
b1100 =
b1100 z"
b1100 I#
b1100 M#
b1100 {"
b1100 '#
b1000 B
b1000 |"
b1000 %#
b1000 (#
b1000 L#
b1000 ?
b1000 h
b1000 y"
b1000 ##
b100 A
b100 i
b100 x"
b100 "#
b11100001000000100010011 F
b11100001000000100010011 l
b11100001000000100010011 ~"
b11100001000000100010011 !#
b101 2
b101 [
b101 /#
b101 }
b1 M
b1 S
b1 t
b1 A"
b1 v"
10
1~
b1 6
b1 Y
b1 {
b1 H"
b1 )#
b101 9
b101 S"
b101 a"
b101 u"
b101 J#
b101 N#
b101 G
b101 T
b101 u
b101 B"
b101 `"
b101 t"
b11111111111111111111111111111111 7
b11111111111111111111111111111111 X
b11111111111111111111111111111111 z
b11111111111111111111111111111111 G"
b11111111111111111111111111111111 n"
b100 ;
b100 >#
b100 A#
b100 Q#
b100 W#
0!
1#
#36
1"
#40
0"
0#
#41
1!
#45
b1100 W"
b1100 h"
bx m
bx *"
bx 0"
bx <"
b0 p
b0 1"
b0 ="
b111 N"
b111 f"
b111 w"
b1100 d"
b101 P"
b101 b"
bx n
bx +"
b1xxx0000000100 ?"
b1100010001001010110011 }"
b1100010001001010110011 $#
b10 I
b10 U"
b10 k"
b10 3#
b101 O"
b101 l"
b10001000000011 )"
b1 #"
b10 ""
b110011 ,"
b110011 6"
b110011 :"
b11 b
b1 (
b1 ^
b1 .#
b1 c
b10 )
b10 ]
b10 ,#
b10 d
b10000 K#
b10000 O#
b1 5
b1 I"
b1 *#
b1 7#
b1 ["
b11111111111111111111111111111111 %
b11111111111111111111111111111111 L"
b11111111111111111111111111111111 9#
b11111111111111111111111111111111 G#
b11111111111111111111111111111111 ^"
b101 P
b101 V"
b101 X"
b101 j"
b101 o"
b101 5#
b101 F#
1/
1\"
b111 2
b111 [
b111 /#
b111 }
b1 3
b1 Z
b1 -#
b1 |
b10 6
b10 Y
b10 {
b10 H"
b10 )#
b1000 >
b1000 V
b1000 D"
b1000 x
b111 G
b111 T
b111 u
b111 B"
b111 `"
b111 t"
b1011 9
b1011 S"
b1011 a"
b1011 u"
b1011 J#
b1011 N#
b100 @
b100 U
b100 w
b100 C"
b100 _"
b11111111111111111111111111111111 8
b11111111111111111111111111111111 W
b11111111111111111111111111111111 y
b11111111111111111111111111111111 F"
b11111111111111111111111111111111 i"
b1100 ?
b1100 h
b1100 y"
b1100 ##
b1000 A
b1000 i
b1000 x"
b1000 "#
b100010000000110110011 F
b100010000000110110011 l
b100010000000110110011 ~"
b100010000000110110011 !#
b10000 =
b10000 z"
b10000 I#
b10000 M#
b10000 {"
b10000 '#
b1100 B
b1100 |"
b1100 %#
b1100 (#
b1100 L#
0!
1#
#46
1"
#50
0"
0#
#51
1!
#55
b1100 P"
b1100 b"
b1100 O"
b1100 l"
b1000101010001100110011 }"
b1000101010001100110011 $#
b100 r
b100 3"
b100 9"
b10001 d"
b10001 W"
b10001 h"
b101 R"
b101 q"
b101 s"
b10100 K#
b10100 O#
b110001000100101 )"
b11 #"
b1 -"
b1 4"
b101 b
b11 (
b11 ^
b11 .#
b11 c
b101 N"
b101 f"
b101 w"
b1 H
b1 T"
b1 p"
b1 4#
b10 I
b10 U"
b10 k"
b10 3#
b101 *
b101 _
b101 $"
b101 Q"
b101 m"
b101 r"
b101 T#
b101 Y#
b1 4
b1 e
b1 '"
b1 2#
b1 =#
b10100 =
b10100 z"
b10100 I#
b10100 M#
b10100 {"
b10100 '#
b10000 B
b10000 |"
b10000 %#
b10000 (#
b10000 L#
b10000 ?
b10000 h
b10000 y"
b10000 ##
b1100 A
b1100 i
b1100 x"
b1100 "#
b1100010001001010110011 F
b1100010001001010110011 l
b1100010001001010110011 ~"
b1100010001001010110011 !#
b1 2
b1 [
b1 /#
b1 }
b10 3
b10 Z
b10 -#
b10 |
b0 M
b0 S
b0 t
b0 A"
b0 v"
b11 6
b11 Y
b11 {
b11 H"
b11 )#
b1100 >
b1100 V
b1100 D"
b1100 x
bx G
bx T
bx u
bx B"
bx `"
bx t"
bx 9
bx S"
bx a"
bx u"
bx J#
bx N#
b1000 @
b1000 U
b1000 w
b1000 C"
b1000 _"
b1000 <
b1000 E"
b1000 6#
b1000 Z"
b10 5
b10 I"
b10 *#
b10 7#
b10 ["
b1100 P
b1100 V"
b1100 X"
b1100 j"
b1100 o"
b1100 5#
b1100 F#
1.
1D#
b101 O
b101 ?#
b101 @#
b101 P#
b101 U#
b1 B#
0!
1#
#56
1"
#60
0"
0#
#61
1!
#65
0M"
0e"
b10001 N"
b10001 f"
b10001 w"
b10001 R"
b10001 q"
b10001 s"
b11101 d"
b1100 P"
b1100 b"
b1100 O"
b1100 l"
b101 r
b101 3"
b101 9"
b10100110100001110110011 }"
b10100110100001110110011 $#
b1100 *
b1100 _
b1100 $"
b1100 Q"
b1100 m"
b1100 r"
b1100 T#
b1100 Y#
b10 4
b10 e
b10 '"
b10 2#
b10 =#
b10 H
b10 T"
b10 p"
b10 4#
b1 I
b1 U"
b1 k"
b1 3#
b110000000000000000000 W"
b110000000000000000000 h"
b100010101000110 )"
b10 #"
b101 ""
b10 -"
b10 4"
b110 b
b10 (
b10 ^
b10 .#
b10 c
b101 )
b101 ]
b101 ,#
b101 d
b11000 K#
b11000 O#
b1100 O
b1100 ?#
b1100 @#
b1100 P#
b1100 U#
b1000 ;
b1000 >#
b1000 A#
b1000 Q#
b1000 W#
b10 B#
b1100 <
b1100 E"
b1100 6#
b1100 Z"
b11 5
b11 I"
b11 *#
b11 7#
b11 ["
b101 %
b101 L"
b101 9#
b101 G#
b101 ^"
b10001 P
b10001 V"
b10001 X"
b10001 j"
b10001 o"
b10001 5#
b10001 F#
b11 2
b11 [
b11 /#
b11 }
b100 Q
b100 R
b100 s
b100 @"
b100 c"
b101 6
b101 Y
b101 {
b101 H"
b101 )#
b10000 >
b10000 V
b10000 D"
b10000 x
b1100 @
b1100 U
b1100 w
b1100 C"
b1100 _"
b10100 ?
b10100 h
b10100 y"
b10100 ##
b10000 A
b10000 i
b10000 x"
b10000 "#
b1000101010001100110011 F
b1000101010001100110011 l
b1000101010001100110011 ~"
b1000101010001100110011 !#
b11000 =
b11000 z"
b11000 I#
b11000 M#
b11000 {"
b11000 '#
b10100 B
b10100 |"
b10100 %#
b10100 (#
b10100 L#
0!
1#
#66
1"
#70
0"
0#
#71
1!
#75
0g"
b11111111111111111111111111111111 N"
b11111111111111111111111111111111 f"
b11111111111111111111111111111111 w"
b110000000000000000000 P"
b110000000000000000000 b"
b11000111101010000110011 }"
b11000111101010000110011 $#
b110 r
b110 3"
b110 9"
1M"
b11111111111111111111111111111111 R"
b11111111111111111111111111111111 q"
b11111111111111111111111111111111 s"
b110000000000000000000 O"
b110000000000000000000 l"
b11100 K#
b11100 O#
b1010011010000111 )"
b101 #"
b110 ""
b100 -"
b100 4"
b111 b
b101 (
b101 ^
b101 .#
b101 c
b110 )
b110 ]
b110 ,#
b110 d
b0 W"
b0 h"
b110000000000000000001 d"
b0 H
b0 T"
b0 p"
b0 4#
b10 I
b10 U"
b10 k"
b10 3#
b10001 *
b10001 _
b10001 $"
b10001 Q"
b10001 m"
b10001 r"
b10001 T#
b10001 Y#
b11 4
b11 e
b11 '"
b11 2#
b11 =#
b11100 =
b11100 z"
b11100 I#
b11100 M#
b11100 {"
b11100 '#
b11000 B
b11000 |"
b11000 %#
b11000 (#
b11000 L#
b11000 ?
b11000 h
b11000 y"
b11000 ##
b10100 A
b10100 i
b10100 x"
b10100 "#
b10100110100001110110011 F
b10100110100001110110011 l
b10100110100001110110011 ~"
b10100110100001110110011 !#
b10 2
b10 [
b10 /#
b10 }
b101 3
b101 Z
b101 -#
b101 |
b101 Q
b101 R
b101 s
b101 @"
b101 c"
b110 6
b110 Y
b110 {
b110 H"
b110 )#
b10100 >
b10100 V
b10100 D"
b10100 x
b10000 @
b10000 U
b10000 w
b10000 C"
b10000 _"
b10000 <
b10000 E"
b10000 6#
b10000 Z"
b101 5
b101 I"
b101 *#
b101 7#
b101 ["
b10001 %
b10001 L"
b10001 9#
b10001 G#
b10001 ^"
b110000000000000000000 P
b110000000000000000000 V"
b110000000000000000000 X"
b110000000000000000000 j"
b110000000000000000000 o"
b110000000000000000000 5#
b110000000000000000000 F#
b10001 O
b10001 ?#
b10001 @#
b10001 P#
b10001 U#
b1100 ;
b1100 >#
b1100 A#
b1100 Q#
b1100 W#
b11 B#
0!
1#
#76
1"
#80
0"
0#
#81
1!
#85
b110000000000000000000 N"
b110000000000000000000 f"
b110000000000000000000 w"
b0 P"
b0 b"
b110000000000000000000 R"
b110000000000000000000 q"
b110000000000000000000 s"
b0 O"
b0 l"
b1 H
b1 T"
b1 p"
b1 4#
0M"
0e"
b111 r
b111 3"
b111 9"
b1000000011101000101010010110011 }"
b1000000011101000101010010110011 $#
b110000000000000000000 *
b110000000000000000000 _
b110000000000000000000 $"
b110000000000000000000 Q"
b110000000000000000000 m"
b110000000000000000000 r"
b110000000000000000000 T#
b110000000000000000000 Y#
b101 4
b101 e
b101 '"
b101 2#
b101 =#
b10 I
b10 U"
b10 k"
b10 3#
b110000000000000000000 W"
b110000000000000000000 h"
b110000000000000000000 d"
b1100011110101000 )"
b110 #"
b111 ""
b101 -"
b101 4"
b1000 b
b110 (
b110 ^
b110 .#
b110 c
b111 )
b111 ]
b111 ,#
b111 d
b100000 K#
b100000 O#
b110000000000000000000 O
b110000000000000000000 ?#
b110000000000000000000 @#
b110000000000000000000 P#
b110000000000000000000 U#
b10000 ;
b10000 >#
b10000 A#
b10000 Q#
b10000 W#
b101 B#
b10100 <
b10100 E"
b10100 6#
b10100 Z"
b110 5
b110 I"
b110 *#
b110 7#
b110 ["
b11111111111111111111111111111111 %
b11111111111111111111111111111111 L"
b11111111111111111111111111111111 9#
b11111111111111111111111111111111 G#
b11111111111111111111111111111111 ^"
b0 P
b0 V"
b0 X"
b0 j"
b0 o"
b0 5#
b0 F#
b101 2
b101 [
b101 /#
b101 }
b110 3
b110 Z
b110 -#
b110 |
b110 Q
b110 R
b110 s
b110 @"
b110 c"
b111 6
b111 Y
b111 {
b111 H"
b111 )#
b11000 >
b11000 V
b11000 D"
b11000 x
b10100 @
b10100 U
b10100 w
b10100 C"
b10100 _"
b11100 ?
b11100 h
b11100 y"
b11100 ##
b11000 A
b11000 i
b11000 x"
b11000 "#
b11000111101010000110011 F
b11000111101010000110011 l
b11000111101010000110011 ~"
b11000111101010000110011 !#
b100000 =
b100000 z"
b100000 I#
b100000 M#
b100000 {"
b100000 '#
b11100 B
b11100 |"
b11100 %#
b11100 (#
b11100 L#
0!
1#
#86
1"
#90
0"
0#
#91
1!
